   9
sisl-version=1 cell= 4.91362818 0.00000000 0.00000000 -2.45681409 4.25911676 0.00000000 0.00000000 0.00000000 40.51491471  nsc= 1 1 1
C   1.25193177  0.69624974  19.91201994
C   -0.00000014  1.41971458  20.22208198
C   0.00000020  2.86675028  19.91197822
C   -1.22200013  3.55281600  19.90824441
C   3.66169676  0.69624971  19.91201988
C   2.45681392  1.41217226  19.90796017
C   2.45681426  2.83922703  19.95700653
C   1.22199986  3.55281596  19.90824443
H   -0.00000021  1.42031657  21.36684847

